degree distribution (probability density function of the degree in logarithmic bins) 
7.464	0.164377
9.33721	0.0929056
11.4603	0.0559109
13.9259	0.0393698
16.9231	0.0233586
20.0286	0.0172212
24.9655	0.0117221
30.6818	0.00730538
37.7931	0.00791099
46.1111	0.00403384

degree distribution (degree-occurrences) 
7	0.134
8	0.116
9	0.114
10	0.058
11	0.068
12	0.058
13	0.04
14	0.036
15	0.032
16	0.034
17	0.016
18	0.028
19	0.024
20	0.026
21	0.014
22	0.006
23	0.016
24	0.01
25	0.008
26	0.008
27	0.016
28	0.004
29	0.004
30	0.01
31	0.014
32	0.008
33	0.004
34	0.004
35	0.008
36	0.008
37	0.002
38	0.01
39	0.012
40	0.008
41	0.006
42	0.002
44	0.006
45	0.008
46	0.006
47	0.004
48	0.004
49	0.004
50	0.002

